<?xml version="1.0" encoding="UTF-8" standalone="no"?>
<!-- Created with Inkscape (http://www.inkscape.org/) -->

<svg
   xmlns:dc="http://purl.org/dc/elements/1.1/"
   xmlns:cc="http://creativecommons.org/ns#"
   xmlns:rdf="http://www.w3.org/1999/02/22-rdf-syntax-ns#"
   xmlns:svg="http://www.w3.org/2000/svg"
   xmlns="http://www.w3.org/2000/svg"
   xmlns:xlink="http://www.w3.org/1999/xlink"
   xmlns:sodipodi="http://sodipodi.sourceforge.net/DTD/sodipodi-0.dtd"
   xmlns:inkscape="http://www.inkscape.org/namespaces/inkscape"
   version="1.0"
   width="325.30612"
   height="325.30612"
   id="svg2424"
   sodipodi:docname="archlinux.svg"
   inkscape:version="0.92.4 5da689c313, 2019-01-14">
  <metadata
     id="metadata34">
    <rdf:RDF>
      <cc:Work
         rdf:about="">
        <dc:format>image/svg+xml</dc:format>
        <dc:type
           rdf:resource="http://purl.org/dc/dcmitype/StillImage" />
        <dc:title></dc:title>
      </cc:Work>
    </rdf:RDF>
  </metadata>
  <sodipodi:namedview
     pagecolor="#ffffff"
     bordercolor="#666666"
     borderopacity="1"
     objecttolerance="10"
     gridtolerance="10"
     guidetolerance="10"
     inkscape:pageopacity="0"
     inkscape:pageshadow="2"
     inkscape:window-width="1280"
     inkscape:window-height="739"
     id="namedview32"
     showgrid="false"
     showguides="false"
     fit-margin-top="5"
     fit-margin-left="5"
     fit-margin-right="5"
     fit-margin-bottom="5"
     inkscape:zoom="0.65333333"
     inkscape:cx="315.37799"
     inkscape:cy="58.227472"
     inkscape:window-x="0"
     inkscape:window-y="24"
     inkscape:window-maximized="1"
     inkscape:current-layer="g2424" />
  <defs
     id="defs2426">
    <linearGradient
       x1="112.49854"
       y1="6.1372099"
       x2="112.49853"
       y2="129.3468"
       id="path1082_2_"
       gradientUnits="userSpaceOnUse"
       gradientTransform="translate(287,-83)">
      <stop
         id="stop193"
         style="stop-color:#ffffff;stop-opacity:0"
         offset="0" />
      <stop
         id="stop195"
         style="stop-color:#ffffff;stop-opacity:0.27450982"
         offset="1" />
      <midPointStop
         offset="0"
         style="stop-color:#FFFFFF"
         id="midPointStop197" />
      <midPointStop
         offset="0.5"
         style="stop-color:#FFFFFF"
         id="midPointStop199" />
      <midPointStop
         offset="1"
         style="stop-color:#000000"
         id="midPointStop201" />
    </linearGradient>
    <linearGradient
       x1="541.33502"
       y1="104.50665"
       x2="606.91248"
       y2="303.14029"
       id="linearGradient2544"
       xlink:href="#path1082_2_"
       gradientUnits="userSpaceOnUse"
       gradientTransform="matrix(-0.3937741,0,0,0.393752,357.51969,122.00151)" />
    <linearGradient
       id="linearGradient3388">
      <stop
         id="stop3390"
         style="stop-color:#000000;stop-opacity:0"
         offset="0" />
      <stop
         id="stop3392"
         style="stop-color:#000000;stop-opacity:0.37113401"
         offset="1" />
    </linearGradient>
    <linearGradient
       x1="490.72305"
       y1="237.72447"
       x2="490.72305"
       y2="183.9644"
       id="linearGradient4416"
       xlink:href="#linearGradient3388"
       gradientUnits="userSpaceOnUse"
       gradientTransform="matrix(0.749107,0,0,0.749107,-35.459862,91.44108)" />
  </defs>
  <g
     id="g2424"
     transform="matrix(0.8746356,0,0,0.8746356,-109.17945,-1.4022055)">
    <g
       id="g4600">
      <circle
         r="180.25"
         cy="187.56985"
         cx="310.79517"
         id="path4570"
         style="fill:#1a1a1a;fill-opacity:1;stroke:none;stroke-width:1.14333332;stroke-linecap:round;stroke-linejoin:round;stroke-miterlimit:4;stroke-dasharray:none;stroke-opacity:1" />
      <path
         inkscape:connector-curvature="0"
         style="fill:#1793d1;fill-opacity:1;fill-rule:evenodd;stroke:none;stroke-width:1.44115758"
         id="path4572"
         d="m 310.77266,51.811996 c -10.66006,26.135628 -17.08969,43.231373 -28.95826,68.590084 7.27691,7.71352 16.209,16.69632 30.71468,26.84156 -15.59502,-6.41726 -26.23274,-12.86003 -34.18246,-19.54571 -15.18952,31.69526 -38.98712,76.84374 -87.2801,163.61642 37.95666,-21.91304 67.38,-35.42267 94.80114,-40.57759 -1.17747,-5.0643 -1.84692,-10.54234 -1.80145,-16.25806 l 0.045,-1.21598 c 0.60228,-24.31784 13.2524,-43.01826 28.23768,-41.74852 14.98528,1.26971 26.63318,22.02437 26.03091,46.34222 -0.11328,4.57584 -0.62942,8.97775 -1.53123,13.06049 27.12343,5.30583 56.23214,18.78086 93.67524,40.39744 -7.38304,-13.59271 -13.97305,-25.84553 -20.26627,-37.51514 -9.91285,-7.68311 -20.25244,-17.68271 -41.34321,-28.50788 14.49659,3.76682 24.87597,8.11273 32.96648,12.9704 -63.9849,-119.12872 -69.1663,-134.95847 -91.10816,-186.449734 z" />
    </g>
  </g>
</svg>
