<?xml version="1.0" encoding="UTF-8" standalone="no"?>
<!-- Created with Inkscape (http://www.inkscape.org/) -->

<svg
   xmlns:dc="http://purl.org/dc/elements/1.1/"
   xmlns:cc="http://creativecommons.org/ns#"
   xmlns:rdf="http://www.w3.org/1999/02/22-rdf-syntax-ns#"
   xmlns:svg="http://www.w3.org/2000/svg"
   xmlns="http://www.w3.org/2000/svg"
   xmlns:sodipodi="http://sodipodi.sourceforge.net/DTD/sodipodi-0.dtd"
   xmlns:inkscape="http://www.inkscape.org/namespaces/inkscape"
   width="210mm"
   height="297mm"
   viewBox="0 0 210 297"
   version="1.1"
   id="svg7761"
   inkscape:version="0.92.4 5da689c313, 2019-01-14"
   sodipodi:docname="flisol.svg">
  <defs
     id="defs7755" />
  <sodipodi:namedview
     id="base"
     pagecolor="#ffffff"
     bordercolor="#666666"
     borderopacity="1.0"
     inkscape:pageopacity="0.0"
     inkscape:pageshadow="2"
     inkscape:zoom="0.2902992"
     inkscape:cx="512.46752"
     inkscape:cy="519.60911"
     inkscape:document-units="mm"
     inkscape:current-layer="layer1"
     showgrid="false"
     showguides="true"
     inkscape:guide-bbox="true"
     inkscape:window-width="1280"
     inkscape:window-height="739"
     inkscape:window-x="0"
     inkscape:window-y="24"
     inkscape:window-maximized="1">
    <sodipodi:guide
       position="-136.07143,151.19048"
       orientation="0,1"
       id="guide8358"
       inkscape:locked="false" />
    <sodipodi:guide
       position="105.83333,-52.916668"
       orientation="1,0"
       id="guide8360"
       inkscape:locked="false" />
  </sodipodi:namedview>
  <metadata
     id="metadata7758">
    <rdf:RDF>
      <cc:Work
         rdf:about="">
        <dc:format>image/svg+xml</dc:format>
        <dc:type
           rdf:resource="http://purl.org/dc/dcmitype/StillImage" />
        <dc:title />
      </cc:Work>
    </rdf:RDF>
  </metadata>
  <g
     inkscape:label="Capa 1"
     inkscape:groupmode="layer"
     id="layer1">
    <path
       style="opacity:1;fill:#000000;fill-opacity:1;stroke:#000000;stroke-width:1.76800001;stroke-linecap:round;stroke-linejoin:round;stroke-miterlimit:4;stroke-dasharray:none;stroke-dashoffset:0;stroke-opacity:1"
       d="M -2.2678571,-1.6011904 H 210.91072 V 300.02381 H -2.2678571 Z"
       id="rect8356" />
    <g
       id="g8422"
       transform="matrix(0.7821225,0.00447676,-0.00447676,0.7821225,21.561321,-9.0491039)"
       style="stroke:#fe255c;stroke-opacity:1">
      <path
         sodipodi:nodetypes="ccccccc"
         inkscape:connector-curvature="0"
         id="path10267-0-4-5-4-4-8-7-0-2-4-5-2-4-5-2-6-8-7-9-6-0-7-9-5-6"
         d="M 120.59565,110.48823 84.627647,72.804045 58.613923,97.865033 79.169567,119.72551 95.496955,103.98316 84.726056,92.96429 79.026203,98.344955"
         style="fill:none;stroke:#fe255c;stroke-width:6.19957733;stroke-linecap:round;stroke-linejoin:round;stroke-miterlimit:4;stroke-dasharray:none;stroke-opacity:1" />
      <path
         sodipodi:nodetypes="ccccccc"
         inkscape:connector-curvature="0"
         id="path10267-0-6-9-1-9-4-6-0-7-9-6-4-4-0-5-30-1-3-7-6-9-1-6-4-8-2"
         d="M 115.00337,134.32634 152.68748,98.358366 127.62646,72.344575 105.76604,92.900288 121.5084,109.22764 132.52723,98.456776 127.14654,92.756857"
         style="fill:none;stroke:#fe255c;stroke-width:6.19957733;stroke-linecap:round;stroke-linejoin:round;stroke-miterlimit:4;stroke-dasharray:none;stroke-opacity:1" />
      <path
         inkscape:transform-center-y="8.6366409"
         inkscape:transform-center-x="-14.069136"
         sodipodi:nodetypes="ccccccc"
         inkscape:connector-curvature="0"
         id="path10267-0-4-5-4-4-8-7-0-2-4-5-2-4-5-76-16-5-3-4-1-4-6-5-0-7-5"
         d="m 70.743779,129.95686 -37.684179,35.96803 25.060988,26.01372 21.860484,-20.55564 -15.742358,-16.32741 -11.018869,10.77093 5.380666,5.69985"
         style="fill:none;stroke:#fe255c;stroke-width:6.19957733;stroke-linecap:round;stroke-linejoin:round;stroke-miterlimit:4;stroke-dasharray:none;stroke-opacity:1" />
      <path
         inkscape:transform-center-y="-3.4557141"
         inkscape:transform-center-x="-15.883876"
         sodipodi:nodetypes="ccccccc"
         inkscape:connector-curvature="0"
         id="path10267-0-6-9-1-9-4-6-0-7-9-6-4-4-0-5-3-5-5-5-4-0-7-8-72-9-8-3"
         d="M 94.581898,135.54917 58.613921,97.865062 32.600132,122.92604 53.155843,144.7865 69.483199,129.04411 58.712332,118.02527 l -5.699918,5.3807"
         style="fill:none;stroke:#fe255c;stroke-width:6.19957733;stroke-linecap:round;stroke-linejoin:round;stroke-miterlimit:4;stroke-dasharray:none;stroke-opacity:1" />
      <path
         sodipodi:nodetypes="ccccccc"
         inkscape:connector-curvature="0"
         id="path10267-0-4-5-4-4-8-7-0-2-4-5-2-4-5-8-5-4-1-4-6-7-3-28-6-3-7"
         d="m 90.21238,179.80873 35.96804,37.68418 26.01372,-25.06099 -20.55564,-21.86049 -16.32745,15.74236 10.77096,11.01887 5.69982,-5.38066"
         style="fill:none;stroke:#fe255c;stroke-width:6.19957733;stroke-linecap:round;stroke-linejoin:round;stroke-miterlimit:4;stroke-dasharray:none;stroke-opacity:1" />
      <path
         sodipodi:nodetypes="ccccccc"
         inkscape:connector-curvature="0"
         id="path10267-0-6-9-1-9-4-6-0-7-9-6-4-4-0-5-6-5-8-8-1-5-1-4-6-3-1-5"
         d="m 95.804701,155.97061 -37.684113,35.96797 25.060987,26.01379 21.860455,-20.5557 -15.742394,-16.32735 -11.018834,10.77086 5.380695,5.69992"
         style="fill:none;stroke:#fe255c;stroke-width:6.19957733;stroke-linecap:round;stroke-linejoin:round;stroke-miterlimit:4;stroke-dasharray:none;stroke-opacity:1" />
      <path
         inkscape:transform-center-y="8.6366409"
         inkscape:transform-center-x="-14.069136"
         sodipodi:nodetypes="ccccccc"
         inkscape:connector-curvature="0"
         id="path10267-0-4-5-4-4-8-7-0-2-4-5-2-4-5-76-1-3-9-9-9-8-5-8-0-3-9-9"
         d="m 140.06428,160.34012 37.68418,-35.96803 -25.06098,-26.013731 -21.86049,20.555641 15.74236,16.32743 11.01887,-10.77094 -5.38068,-5.69984"
         style="fill:none;stroke:#fe255c;stroke-width:6.19957733;stroke-linecap:round;stroke-linejoin:round;stroke-miterlimit:4;stroke-dasharray:none;stroke-opacity:1" />
      <path
         inkscape:transform-center-y="-3.4557141"
         inkscape:transform-center-x="-15.883876"
         sodipodi:nodetypes="ccccccc"
         inkscape:connector-curvature="0"
         id="path10267-0-6-9-1-9-4-6-0-7-9-6-4-4-0-5-3-8-5-9-5-9-0-8-4-5-9-5-0"
         d="m 116.22616,154.7478 35.96798,37.68412 26.01379,-25.06099 -20.5557,-21.86046 -16.32737,15.74239 10.77087,11.01884 5.69993,-5.38069"
         style="fill:none;stroke:#fe255c;stroke-width:6.19957733;stroke-linecap:round;stroke-linejoin:round;stroke-miterlimit:4;stroke-dasharray:none;stroke-opacity:1" />
    </g>
    <g
       id="g8430"
       transform="matrix(0.78213531,0,0,0.78213531,21.737936,-9.4068551)"
       style="fill:#fe255c;fill-opacity:1">
      <g
         style="fill:#fe255c;fill-opacity:1;stroke:none;stroke-opacity:1"
         transform="matrix(2.8047596,-0.06028924,0.06028924,2.8047596,-241.98857,-303.97953)"
         id="g5708-82-3-6-70-0-3-8">
        <path
           transform="rotate(-1.1419102)"
           style="opacity:1;fill:#fe255c;fill-opacity:1;stroke:none;stroke-width:4.52228498;stroke-linecap:round;stroke-linejoin:round;stroke-miterlimit:4;stroke-dasharray:none;stroke-dashoffset:0;stroke-opacity:1"
           d="m 85.425196,164.26436 a 1.1388645,1.1388645 0 0 1 -1.138865,1.13886 1.1388645,1.1388645 0 0 1 -1.138864,-1.13886 1.1388645,1.1388645 0 0 1 1.138864,-1.13887 1.1388645,1.1388645 0 0 1 1.138865,1.13887 z"
           id="path10329-1-8-2-3-9-70-0-1-28-0-0-9-0-2-2-4-8-6-1-0-4-2-9-0-0-2-0" />
        <path
           transform="rotate(-1.1419102)"
           style="opacity:1;fill:#fe255c;fill-opacity:1;stroke:none;stroke-width:4.52228498;stroke-linecap:round;stroke-linejoin:round;stroke-miterlimit:4;stroke-dasharray:none;stroke-dashoffset:0;stroke-opacity:1"
           d="m 90.377398,164.36307 a 1.1388645,1.1388645 0 0 1 -1.138865,1.13886 1.1388645,1.1388645 0 0 1 -1.138864,-1.13886 1.1388645,1.1388645 0 0 1 1.138864,-1.13887 1.1388645,1.1388645 0 0 1 1.138865,1.13887 z"
           id="path10329-7-7-1-1-9-0-8-7-8-6-2-6-0-6-5-4-4-1-4-4-5-7-1-8-6-1-0-7-9" />
      </g>
      <g
         style="fill:#fe255c;fill-opacity:1"
         id="g5708-8-4-8-5-3-8-2-4"
         transform="matrix(2.8047596,-0.06028924,0.06028924,2.8047596,-73.936484,-303.97953)">
        <path
           transform="rotate(-1.1419102)"
           style="opacity:1;fill:#fe255c;fill-opacity:1;stroke:none;stroke-width:4.52228498;stroke-linecap:round;stroke-linejoin:round;stroke-miterlimit:4;stroke-dasharray:none;stroke-dashoffset:0;stroke-opacity:1"
           d="m 85.425196,164.26436 a 1.1388645,1.1388645 0 0 1 -1.138865,1.13886 1.1388645,1.1388645 0 0 1 -1.138864,-1.13886 1.1388645,1.1388645 0 0 1 1.138864,-1.13887 1.1388645,1.1388645 0 0 1 1.138865,1.13887 z"
           id="path10329-1-8-2-3-9-70-0-1-28-0-0-9-0-2-2-4-8-6-1-0-3-8-0-9-3-8-7-7" />
        <path
           transform="rotate(-1.1419102)"
           style="opacity:1;fill:#fe255c;fill-opacity:1;stroke:none;stroke-width:4.52228498;stroke-linecap:round;stroke-linejoin:round;stroke-miterlimit:4;stroke-dasharray:none;stroke-dashoffset:0;stroke-opacity:1"
           d="m 90.377398,164.36307 a 1.1388645,1.1388645 0 0 1 -1.138865,1.13886 1.1388645,1.1388645 0 0 1 -1.138864,-1.13886 1.1388645,1.1388645 0 0 1 1.138864,-1.13887 1.1388645,1.1388645 0 0 1 1.138865,1.13887 z"
           id="path10329-7-7-1-1-9-0-8-7-8-6-2-6-0-6-5-4-4-1-4-4-5-7-8-6-0-9-6-3-9-9" />
      </g>
    </g>
    <g
       id="g8451"
       transform="matrix(0.78213531,0,0,0.78213531,20.249849,-8.5790953)"
       style="fill:#fe255c;fill-opacity:1">
      <g
         transform="translate(0.43864957)"
         id="g8442"
         style="fill:#fe255c;fill-opacity:1">
        <path
           transform="rotate(87.626688)"
           style="opacity:1;fill:#fe255c;fill-opacity:1;stroke:none;stroke-width:12.68685246;stroke-linecap:round;stroke-linejoin:round;stroke-miterlimit:4;stroke-dasharray:none;stroke-dashoffset:0;stroke-opacity:1"
           d="m 65.764647,-103.28294 a 3.194979,3.194979 0 0 1 -3.194979,3.19498 3.194979,3.194979 0 0 1 -3.194979,-3.19498 3.194979,3.194979 0 0 1 3.194979,-3.19498 3.194979,3.194979 0 0 1 3.194979,3.19498 z"
           id="path10329-1-8-2-3-9-70-0-1-28-0-0-9-0-2-2-4-8-6-1-0-0-5-0-9-7-8-0-1" />
        <path
           transform="rotate(87.626688)"
           style="opacity:1;fill:#fe255c;fill-opacity:1;stroke:none;stroke-width:12.68685246;stroke-linecap:round;stroke-linejoin:round;stroke-miterlimit:4;stroke-dasharray:none;stroke-dashoffset:0;stroke-opacity:1"
           d="m 79.645228,-102.70765 a 3.194979,3.194979 0 0 1 -3.194979,3.19498 3.194979,3.194979 0 0 1 -3.194979,-3.19498 3.194979,3.194979 0 0 1 3.194979,-3.19498 3.194979,3.194979 0 0 1 3.194979,3.19498 z"
           id="path10329-7-7-1-1-9-0-8-7-8-6-2-6-0-6-5-4-4-1-4-4-5-7-4-6-2-0-65-5-5-3" />
      </g>
      <g
         transform="translate(0.43864807)"
         id="g8436"
         style="fill:#fe255c;fill-opacity:1">
        <path
           transform="rotate(87.626688)"
           style="opacity:1;fill:#fe255c;fill-opacity:1;stroke:none;stroke-width:12.68685246;stroke-linecap:round;stroke-linejoin:round;stroke-miterlimit:4;stroke-dasharray:none;stroke-dashoffset:0;stroke-opacity:1"
           d="m 233.67258,-96.32386 a 3.194979,3.194979 0 0 1 -3.19498,3.194979 3.194979,3.194979 0 0 1 -3.19498,-3.194979 3.194979,3.194979 0 0 1 3.19498,-3.194979 3.194979,3.194979 0 0 1 3.19498,3.194979 z"
           id="path10329-1-8-2-3-9-70-0-1-28-0-0-9-0-2-2-4-8-6-1-0-3-5-0-3-3-2-2-9-1" />
        <path
           transform="rotate(87.626688)"
           style="opacity:1;fill:#fe255c;fill-opacity:1;stroke:none;stroke-width:12.68685246;stroke-linecap:round;stroke-linejoin:round;stroke-miterlimit:4;stroke-dasharray:none;stroke-dashoffset:0;stroke-opacity:1"
           d="m 247.55316,-95.748573 a 3.194979,3.194979 0 0 1 -3.19498,3.194979 3.194979,3.194979 0 0 1 -3.19497,-3.194979 3.194979,3.194979 0 0 1 3.19497,-3.194979 3.194979,3.194979 0 0 1 3.19498,3.194979 z"
           id="path10329-7-7-1-1-9-0-8-7-8-6-2-6-0-6-5-4-4-1-4-4-5-7-8-7-2-9-9-8-0-8-8" />
      </g>
      <path
         transform="rotate(-2.0689716)"
         style="opacity:1;fill:#fe255c;fill-opacity:1;stroke:none;stroke-width:5.16291761;stroke-linecap:round;stroke-linejoin:round;stroke-miterlimit:4;stroke-dasharray:none;stroke-dashoffset:0;stroke-opacity:1"
         d="m 116.32635,151.01907 a 15.488755,15.488755 0 0 1 -15.48876,15.48876 15.488755,15.488755 0 0 1 -15.488752,-15.48876 15.488755,15.488755 0 0 1 15.488752,-15.48875 15.488755,15.488755 0 0 1 15.48876,15.48875 z"
         id="path5895-0-7-5-5-9-5" />
    </g>
    <g
       id="g11087"
       style="fill:#fe255c;fill-opacity:1"
       transform="translate(-1.5875)">
      <g
         aria-label="f l i s o l"
         style="font-style:normal;font-variant:normal;font-weight:bold;font-stretch:normal;font-size:39.71359253px;line-height:1.25;font-family:Comfortaa;-inkscape-font-specification:'Comfortaa Bold';letter-spacing:0px;word-spacing:0px;fill:#fe255c;fill-opacity:1;stroke:none;stroke-width:0.99283981"
         id="text4600-5-33">
        <path
           d="m 37.758372,200.30382 q -2.223961,0 -3.574223,1.46941 -1.350262,1.4694 -1.350262,3.89193 v 1.07227 h 4.050786 q 0.833985,0 1.350262,0.47656 0.516277,0.47656 0.516277,1.27083 0,0.71485 -0.516277,1.19141 -0.516277,0.47656 -1.350262,0.47656 h -4.050786 v 15.48831 q 0,0.91341 -0.555991,1.4694 -0.55599,0.55599 -1.54883,0.55599 -0.794272,0 -1.389976,-0.55599 -0.55599,-0.55599 -0.55599,-1.4694 v -15.48831 h -1.707684 q -0.833986,0 -1.350262,-0.47656 -0.516277,-0.47656 -0.516277,-1.19141 0,-0.79427 0.516277,-1.27083 0.516276,-0.47656 1.350262,-0.47656 H 28.7831 v -0.67514 q 0,-2.81966 1.111981,-4.92448 1.151694,-2.14454 3.177087,-3.29623 2.065107,-1.19141 4.686204,-1.19141 0.873699,0 1.429689,0.51628 0.595704,0.51628 0.595704,1.31055 0,0.79427 -0.595704,1.31055 -0.55599,0.51627 -1.429689,0.51627 z"
           style="font-style:normal;font-variant:normal;font-weight:bold;font-stretch:normal;font-family:Comfortaa;-inkscape-font-specification:'Comfortaa Bold';fill:#fe255c;fill-opacity:1;stroke-width:0.99283981"
           id="path946"
           inkscape:connector-curvature="0" />
        <path
           d="m 53.808869,198.63585 q 0,-0.8737 0.55599,-1.42969 0.55599,-0.55599 1.429689,-0.55599 0.873699,0 1.42969,0.55599 0.55599,0.55599 0.55599,1.42969 v 21.68362 q 0,1.46941 0.55599,2.42253 0.555991,0.95313 1.42969,0.95313 h 0.992839 q 0.794272,0 1.270835,0.55599 0.516277,0.55599 0.516277,1.42969 0,0.8737 -0.754558,1.42969 -0.754558,0.55599 -1.945966,0.55599 h -0.07943 q -1.707685,0 -3.097661,-0.91341 -1.350262,-0.95313 -2.10482,-2.6211 -0.754558,-1.70769 -0.754558,-3.81251 z"
           style="font-style:normal;font-variant:normal;font-weight:bold;font-stretch:normal;font-family:Comfortaa;-inkscape-font-specification:'Comfortaa Bold';fill:#fe255c;fill-opacity:1;stroke-width:0.99283981"
           id="path948"
           inkscape:connector-curvature="0" />
        <path
           d="m 78.580223,207.96855 q 0,-0.91342 0.55599,-1.46941 0.595704,-0.55599 1.469403,-0.55599 0.913413,0 1.469403,0.55599 0.555991,0.55599 0.555991,1.46941 v 17.67255 q 0,0.87369 -0.555991,1.4694 -0.55599,0.55599 -1.469403,0.55599 -0.873699,0 -1.469403,-0.55599 -0.55599,-0.59571 -0.55599,-1.4694 z m 2.025393,-10.8021 q 1.072267,0 1.826826,0.79427 0.794271,0.75456 0.794271,1.82683 0,1.07226 -0.794271,1.86654 -0.754559,0.75455 -1.826826,0.75455 -1.072267,0 -1.866539,-0.75455 -0.754558,-0.79428 -0.754558,-1.86654 0,-1.07227 0.754558,-1.82683 0.794272,-0.79427 1.866539,-0.79427 z"
           style="font-style:normal;font-variant:normal;font-weight:bold;font-stretch:normal;font-family:Comfortaa;-inkscape-font-specification:'Comfortaa Bold';fill:#fe255c;fill-opacity:1;stroke-width:0.99283981"
           id="path950"
           inkscape:connector-curvature="0" />
        <path
           d="m 109.46561,205.7843 q 2.58138,0 4.60678,0.83398 2.0651,0.83399 3.25651,2.30339 0.51628,0.63542 0.51628,1.27084 0,0.67513 -0.67513,1.23112 -0.43685,0.31771 -1.11198,0.31771 -1.03256,0 -1.86654,-0.75456 -0.99284,-0.91341 -2.10482,-1.27084 -1.11198,-0.39713 -2.70053,-0.39713 -1.82682,0 -3.01823,0.63542 -1.15169,0.5957 -1.15169,1.70768 0,0.79427 0.39713,1.35026 0.39714,0.51628 1.50912,0.99284 1.11198,0.43685 3.2168,0.8737 4.32878,0.8737 6.11589,2.42253 1.82683,1.54883 1.82683,4.01107 0,1.82683 -0.99284,3.33595 -0.99284,1.4694 -2.93881,2.3431 -1.90625,0.83398 -4.60678,0.83398 -2.70052,0 -5.08334,-0.83398 -2.38281,-0.83399 -3.73307,-2.18425 -0.51628,-0.51628 -0.51628,-1.23112 0,-0.95313 0.79427,-1.54883 0.75456,-0.55599 1.38998,-0.55599 0.79427,0 1.50911,0.71484 0.75456,0.83399 2.26368,1.46941 1.50912,0.5957 3.2168,0.5957 2.26368,0 3.4948,-0.75456 1.27083,-0.75456 1.27083,-2.02539 0,-1.23112 -1.23112,-2.0254 -1.23112,-0.83398 -4.16993,-1.38997 -7.62501,-1.4694 -7.62501,-6.27475 0,-1.94596 1.1517,-3.29623 1.15169,-1.35026 3.01823,-2.02539 1.86654,-0.67513 3.97136,-0.67513 z"
           style="font-style:normal;font-variant:normal;font-weight:bold;font-stretch:normal;font-family:Comfortaa;-inkscape-font-specification:'Comfortaa Bold';fill:#fe255c;fill-opacity:1;stroke-width:0.99283981"
           id="path952"
           inkscape:connector-curvature="0" />
        <path
           d="m 144.88765,205.7843 q 3.13738,0 5.59962,1.42969 2.50196,1.38997 3.89193,3.89193 1.42969,2.50196 1.42969,5.71876 0,3.17709 -1.38998,5.67904 -1.38997,2.50196 -3.89193,3.93165 -2.46224,1.38997 -5.63933,1.38997 -3.17708,0 -5.67904,-1.38997 -2.50196,-1.42969 -3.89193,-3.93165 -1.38998,-2.50195 -1.38998,-5.67904 0,-3.2168 1.38998,-5.71876 1.38997,-2.50196 3.89193,-3.89193 2.50196,-1.42969 5.67904,-1.42969 z m 0,3.57422 q -2.02539,0 -3.65365,0.95313 -1.58854,0.95312 -2.50195,2.66081 -0.91342,1.70768 -0.91342,3.85222 0,2.14453 0.91342,3.85222 0.91341,1.66797 2.50195,2.62109 1.62826,0.95313 3.65365,0.95313 2.0254,0 3.61394,-0.95313 1.62826,-0.95312 2.50196,-2.62109 0.91341,-1.70769 0.91341,-3.85222 0,-2.14454 -0.91341,-3.85222 -0.8737,-1.70769 -2.50196,-2.66081 -1.58854,-0.95313 -3.61394,-0.95313 z"
           style="font-style:normal;font-variant:normal;font-weight:bold;font-stretch:normal;font-family:Comfortaa;-inkscape-font-specification:'Comfortaa Bold';fill:#fe255c;fill-opacity:1;stroke-width:0.99283981"
           id="path954"
           inkscape:connector-curvature="0" />
        <path
           d="m 172.71695,198.63585 q 0,-0.8737 0.55599,-1.42969 0.55599,-0.55599 1.42969,-0.55599 0.8737,0 1.42969,0.55599 0.55599,0.55599 0.55599,1.42969 v 21.68362 q 0,1.46941 0.55599,2.42253 0.55599,0.95313 1.42969,0.95313 h 0.99284 q 0.79427,0 1.27084,0.55599 0.51627,0.55599 0.51627,1.42969 0,0.8737 -0.75456,1.42969 -0.75455,0.55599 -1.94596,0.55599 h -0.0794 q -1.70768,0 -3.09766,-0.91341 -1.35026,-0.95313 -2.10482,-2.6211 -0.75456,-1.70769 -0.75456,-3.81251 z"
           style="font-style:normal;font-variant:normal;font-weight:bold;font-stretch:normal;font-family:Comfortaa;-inkscape-font-specification:'Comfortaa Bold';fill:#fe255c;fill-opacity:1;stroke-width:0.99283981"
           id="path956"
           inkscape:connector-curvature="0" />
      </g>
      <g
         aria-label="c a b a"
         style="font-style:normal;font-variant:normal;font-weight:normal;font-stretch:normal;font-size:20.7114315px;line-height:1.25;font-family:Comfortaa;-inkscape-font-specification:Comfortaa;letter-spacing:0px;word-spacing:0px;fill:#fe255c;fill-opacity:1;stroke:none;stroke-width:0.51778573"
         id="text1997">
        <path
           d="m 73.40986,239.54863 q 2.588929,0 4.20442,1.9883 0.165692,0.1864 0.165692,0.43494 0,0.33138 -0.352094,0.57992 -0.186403,0.12426 -0.393518,0.12426 -0.310671,0 -0.600631,-0.31067 -0.621343,-0.68347 -1.366955,-1.01486 -0.745611,-0.35209 -1.656914,-0.35209 -1.139129,0 -2.02972,0.55921 -0.890592,0.53849 -1.387666,1.53264 -0.476363,0.99415 -0.476363,2.23684 0,1.22197 0.517786,2.21612 0.517785,0.97344 1.4498,1.53265 0.932014,0.55921 2.133277,0.55921 1.656915,0 2.671775,-0.8906 0.269248,-0.22782 0.559209,-0.22782 0.248537,0 0.455651,0.16569 0.28996,0.24854 0.28996,0.55921 0,0.26925 -0.207114,0.45565 -1.491223,1.38767 -3.769481,1.38767 -1.615491,0 -2.8996,-0.74562 -1.284109,-0.76632 -2.02972,-2.07114 -0.724901,-1.32553 -0.724901,-2.94102 0,-1.65692 0.704189,-2.96174 0.704189,-1.32553 1.946875,-2.07114 1.242686,-0.74561 2.796043,-0.74561 z"
           style="font-style:normal;font-variant:normal;font-weight:normal;font-stretch:normal;font-family:Comfortaa;-inkscape-font-specification:Comfortaa;fill:#fe255c;fill-opacity:1;stroke-width:0.51778573"
           id="path959"
           inkscape:connector-curvature="0" />
        <path
           d="m 92.126198,239.54863 q 1.615491,0 2.920312,0.76632 1.325531,0.74561 2.071143,2.07114 0.766323,1.32554 0.766323,2.94103 v 4.86718 q 0,0.33139 -0.227826,0.55921 -0.227826,0.22783 -0.57992,0.22783 -0.352094,0 -0.57992,-0.20712 -0.227826,-0.22782 -0.227826,-0.57992 v -1.24268 q -0.7249,0.99415 -1.843317,1.57407 -1.118418,0.55921 -2.464661,0.55921 -1.574069,0 -2.858177,-0.74562 -1.263398,-0.76632 -2.009009,-2.07114 -0.7249,-1.32553 -0.7249,-2.94102 0,-1.61549 0.745611,-2.94103 0.766323,-1.32553 2.071143,-2.07114 1.325532,-0.76632 2.941024,-0.76632 z m 0,10.08647 q 1.180551,0 2.133277,-0.55921 0.952726,-0.55921 1.491223,-1.53265 0.559209,-0.99415 0.559209,-2.21612 0,-1.22198 -0.559209,-2.19541 -0.538497,-0.99415 -1.491223,-1.55336 -0.952726,-0.57992 -2.133277,-0.57992 -1.180552,0 -2.153989,0.57992 -0.952726,0.55921 -1.511935,1.55336 -0.538497,0.97343 -0.538497,2.19541 0,1.22197 0.538497,2.21612 0.559209,0.97344 1.511935,1.53265 0.973437,0.55921 2.153989,0.55921 z"
           style="font-style:normal;font-variant:normal;font-weight:normal;font-stretch:normal;font-family:Comfortaa;-inkscape-font-specification:Comfortaa;fill:#fe255c;fill-opacity:1;stroke-width:0.51778573"
           id="path961"
           inkscape:connector-curvature="0" />
        <path
           d="m 107.09442,240.25282 q -0.0207,0.0621 -0.0207,0.1864 v 4.86719 q 0,1.61549 0.74562,2.94102 0.76632,1.32553 2.07114,2.09185 1.32553,0.74562 2.94102,0.74562 1.61549,0 2.92031,-0.74562 1.32554,-0.76632 2.07115,-2.09185 0.76632,-1.32553 0.76632,-2.94102 0,-1.6155 -0.74561,-2.92032 -0.7249,-1.32553 -2.00901,-2.07114 -1.2634,-0.76632 -2.83747,-0.76632 -1.34624,0 -2.46466,0.57992 -1.11841,0.55921 -1.84331,1.55336 v -6.06845 q 0,-0.3521 -0.22783,-0.57992 -0.22783,-0.22783 -0.57992,-0.22783 -0.35209,0 -0.57992,0.22783 -0.20711,0.22782 -0.20711,0.57992 z m 5.73706,9.38228 q -1.18055,0 -2.13328,-0.55921 -0.95272,-0.57992 -1.51193,-1.55336 -0.5385,-0.99415 -0.5385,-2.21612 0,-0.3521 0.0207,-0.51779 0.0207,-0.0414 0.0207,-0.10356 0.20711,-1.61549 1.34624,-2.65106 1.15984,-1.03557 2.79604,-1.03557 1.18055,0 2.13328,0.55921 0.97344,0.55921 1.51193,1.55335 0.55921,0.97344 0.55921,2.19542 0,1.22197 -0.55921,2.21612 -0.53849,0.97344 -1.51193,1.55336 -0.95273,0.55921 -2.13328,0.55921 z"
           style="font-style:normal;font-variant:normal;font-weight:normal;font-stretch:normal;font-family:Comfortaa;-inkscape-font-specification:Comfortaa;fill:#fe255c;fill-opacity:1;stroke-width:0.51778573"
           id="path963"
           inkscape:connector-curvature="0" />
        <path
           d="m 132.94228,239.54863 q 1.61549,0 2.92031,0.76632 1.32553,0.74561 2.07114,2.07114 0.76633,1.32554 0.76633,2.94103 v 4.86718 q 0,0.33139 -0.22783,0.55921 -0.22782,0.22783 -0.57992,0.22783 -0.35209,0 -0.57992,-0.20712 -0.22782,-0.22782 -0.22782,-0.57992 v -1.24268 q -0.7249,0.99415 -1.84332,1.57407 -1.11842,0.55921 -2.46466,0.55921 -1.57407,0 -2.85818,-0.74562 -1.2634,-0.76632 -2.00901,-2.07114 -0.7249,-1.32553 -0.7249,-2.94102 0,-1.61549 0.74561,-2.94103 0.76633,-1.32553 2.07115,-2.07114 1.32553,-0.76632 2.94102,-0.76632 z m 0,10.08647 q 1.18055,0 2.13328,-0.55921 0.95272,-0.55921 1.49122,-1.53265 0.55921,-0.99415 0.55921,-2.21612 0,-1.22198 -0.55921,-2.19541 -0.5385,-0.99415 -1.49122,-1.55336 -0.95273,-0.57992 -2.13328,-0.57992 -1.18055,0 -2.15399,0.57992 -0.95273,0.55921 -1.51193,1.55336 -0.5385,0.97343 -0.5385,2.19541 0,1.22197 0.5385,2.21612 0.5592,0.97344 1.51193,1.53265 0.97344,0.55921 2.15399,0.55921 z"
           style="font-style:normal;font-variant:normal;font-weight:normal;font-stretch:normal;font-family:Comfortaa;-inkscape-font-specification:Comfortaa;fill:#fe255c;fill-opacity:1;stroke-width:0.51778573"
           id="path965"
           inkscape:connector-curvature="0" />
      </g>
    </g>
  </g>
</svg>
